"Fecha de Emisión";"Tipo de Comprobante";"Punto de Venta";"Número de Comprobante";"Tipo Doc. Vendedor";"Nro. Doc. Vendedor";"Denominación Vendedor";"Importe Total";"Moneda Original";"Tipo de Cambio";"Importe No Gravado";"Importe Exento";"Crédito Fiscal Computable";"Importe de Per. o Pagos a Cta. de Otros Imp. Nac.";"Importe de Percepciones de Ingresos Brutos";"Importe de Impuestos Municipales";"Importe de Percepciones o Pagos a Cuenta de IVA";"Importe de Impuestos Internos";"Importe Otros Tributos";"Neto Gravado IVA 0%";"Neto Gravado IVA 2,5%";"Importe IVA 2,5%";"Neto Gravado IVA 5%";"Importe IVA 5%";"Neto Gravado IVA 10,5%";"Importe IVA 10,5%";"Neto Gravado IVA 21%";"Importe IVA 21%";"Neto Gravado IVA 27%";"Importe IVA 27%";"Total Neto Gravado";"Total IVA"
2022-04-01;1;4;368;80;27319112044;"NOWOSAD PAMELA SOLANGE";17700,00;"PES";1,00;0,00;0,00;3071,90;0,00;0,00;0,00;0,00;0,00;0,00;;;;;;;;14628,10;3071,90;;;14628,10;3071,90
2022-04-01;1;4;1523;80;30711527458;"DOMINGUEZ SRL";897820,00;"PES";1,00;0,00;0,00;155820,00;0,00;0,00;0,00;0,00;0,00;0,00;;;;;;;;742000,00;155820,00;;;742000,00;155820,00
2022-04-01;1;2;461355;80;30704961983;"INTEGRITY SEGUROS ARGENTINA S.A.";1967,20;"PES";1,00;0,00;0,00;413,11;0,00;0,00;0,00;0,00;0,00;0,00;;;;;;;;1967,20;413,11;;;2200,00;336,00
2022-04-01;1;3;17116;80;30674874975;"LAS ROSAS CABLEVISION SRL";2900,00;"PES";1,00;0,00;0,00;503,31;0,00;0,00;0,00;0,00;0,00;0,00;;;;;;;;2396,69;503,31;;;2396,69;503,30
2022-04-01;1;4;1055563;80;30518919349;"ASEGURADORES DE CAUCIONES S A COMPAÑIA DE SEGUROS";2090,15;"PES";1,00;18,70;0,00;438,93;0,00;0,00;0,00;0,00;0,00;0,00;;;;;;;;2090,15;438,93;;;1700,00;357,00
2022-04-01;1;4;147107;80;30709187941;"AFIANZADORA LATINOAMERICANA COMPAÑIA DE SEGUROS SA";1716,80;"PES";1,00;15,05;0,00;360,53;0,00;0,00;0,00;0,00;0,00;0,00;;;;;;;;1716,80;360,53;;;1368,52;287,40
2022-04-01;1;1;3;80;20277521165;"CASTILLO JORGE VALENTIN";300007,40;"PES";1,00;0,00;0,00;52067,40;0,00;0,00;0,00;0,00;0,00;0,00;;;;;;;;247940,00;52067,40;;;247940,00;52067,40
2022-04-01;1;4;148988;80;30709187941;"AFIANZADORA LATINOAMERICANA COMPAÑIA DE SEGUROS SA";7067,97;"PES";1,00;61,97;0,00;1484,27;0,00;0,00;0,00;0,00;0,00;0,00;;;;;;;;7067,97;1484,27;;;5634,10;1183,20
2022-04-01;1;3;7004;80;30576926479;"DISTRIBUIDORA BROWN SRL";17022,16;"PES";1,00;0,00;0,00;2954,26;0,00;0,00;0,00;0,00;0,00;0,00;;;;;;;;14067,90;2954,26;;;14067,90;2954,30
2022-04-01;1;5;9;80;20301844663;"HERNANDEZ RODRIGO RAUL";182668,00;"PES";1,00;0,00;0,00;31702,71;0,00;0,00;0,00;0,00;0,00;0,00;;;;;;;;150965,29;31702,71;;;150965,29;31702,70
2022-04-01;1;2;462172;80;30704961983;"INTEGRITY SEGUROS ARGENTINA S.A.";7653,72;"PES";1,00;0,00;0,00;1607,28;0,00;0,00;0,00;0,00;0,00;0,00;;;;;;;;7653,72;1607,28;;;6825,06;1307,30
2022-04-01;1;2;61;80;20268713981;"DOMINGUEZ FERNANDO OMAR";897820,00;"PES";1,00;0,00;0,00;155820,00;0,00;0,00;0,00;0,00;0,00;0,00;;;;;;;;742000,00;155820,00;;;742000,00;155820,00
2022-04-01;1;1000;58236;80;30501718048;"JOSE Y PEDRO CELOTTI S.A.C.I.F. E I.";4086,80;"PES";1,00;0,00;0,00;709,28;0,00;0,00;0,00;0,00;0,00;0,00;;;;;;;;3377,52;709,28;;;3377,52;709,30
2022-04-01;1;4;1055560;80;30518919349;"ASEGURADORES DE CAUCIONES S A COMPAÑIA DE SEGUROS";1717,59;"PES";1,00;15,36;0,00;360,69;0,00;0,00;0,00;0,00;0,00;0,00;;;;;;;;1717,59;360,69;;;1396,98;293,40
2022-04-01;1;4;1055561;80;30518919349;"ASEGURADORES DE CAUCIONES S A COMPAÑIA DE SEGUROS";1813,52;"PES";1,00;16,23;0,00;380,84;0,00;0,00;0,00;0,00;0,00;0,00;;;;;;;;1813,52;380,84;;;1475,00;309,80
2022-04-01;1;4;1055562;80;30518919349;"ASEGURADORES DE CAUCIONES S A COMPAÑIA DE SEGUROS";1813,52;"PES";1,00;16,23;0,00;380,84;0,00;0,00;0,00;0,00;0,00;0,00;;;;;;;;1813,52;380,84;;;1475,00;309,80
2022-04-01;1;5;3724;80;27160880754;"BERIBE LUCRECIA EVA";7495,61;"PES";1,00;0,00;0,00;1300,89;0,00;0,00;0,00;0,00;0,00;0,00;;;;;;;;6194,72;1300,89;;;6194,72;1300,90
2022-04-01;1;2;462454;80;30704961983;"INTEGRITY SEGUROS ARGENTINA S.A.";11767,77;"PES";1,00;0,00;0,00;2471,23;0,00;0,00;0,00;0,00;0,00;0,00;;;;;;;;11767,77;2471,23;;;10171,18;2010,00
2022-04-01;1;2;462453;80;30704961983;"INTEGRITY SEGUROS ARGENTINA S.A.";33827,91;"PES";1,00;0,00;0,00;7103,86;0,00;0,00;0,00;0,00;0,00;0,00;;;;;;;;33827,91;7103,86;;;28113,55;5777,90
2022-04-01;1;6;6122;80;20101907113;"GRECCA DANIEL ALFONSO";34090,29;"PES";1,00;0,00;0,00;5892,15;0,00;140,29;0,00;0,00;0,00;0,00;;;;;;;;28057,85;5892,15;;;28057,85;5892,20
2022-04-01;1;6;46468;80;30594238385;"DOMISSI HERMANOS S.R.L.";4210171,97;"PES";1,00;0,00;0,00;730691,00;0,00;0,00;0,00;0,00;0,00;0,00;;;;;;;;3479480,97;730691,00;;;3479480,97;730691,00
2022-04-01;1;2;461386;80;30704961983;"INTEGRITY SEGUROS ARGENTINA S.A.";1967,20;"PES";1,00;0,00;0,00;413,11;0,00;0,00;0,00;0,00;0,00;0,00;;;;;;;;1967,20;413,11;;;2200,00;336,00
2022-04-01;1;7;9720;80;20214237734;"DREILING DANIEL ALBERTO";4289,89;"PES";1,00;0,00;0,00;744,53;0,00;0,00;0,00;0,00;0,00;0,00;;;;;;;;3545,38;744,53;;;3545,36;744,50
2022-04-01;1;6;6121;80;20101907113;"GRECCA DANIEL ALFONSO";80852,74;"PES";1,00;0,00;0,00;13974,54;0,00;332,73;0,00;0,00;0,00;0,00;;;;;;;;66545,47;13974,54;;;66545,47;13974,50
2022-04-01;3;4;100;80;30711527458;"DOMINGUEZ SRL";-897820,00;"PES";1,00;0,00;0,00;-155820,00;0,00;0,00;0,00;0,00;0,00;0,00;;;;;;;;-742000,00;-155820,00;;;-742000,00;-155820,00
2022-04-01;11;4;118;80;20080710470;"FRANICHEVICH NELSON ALFONSO";38000,00;"PES";1,00;0,00;0,00;0,00;0,00;0,00;0,00;0,00;0,00;0,00;0,00;0,00;0,00;0,00;0,00;0,00;0,00;0,00;0,00;0,00;0,00;0,00;0,00
2022-04-02;1;2;462980;80;30704961983;"INTEGRITY SEGUROS ARGENTINA S.A.";1967,20;"PES";1,00;0,00;0,00;413,11;0,00;0,00;0,00;0,00;0,00;0,00;;;;;;;;1967,20;413,11;;;2200,00;336,00
2022-04-02;1;16;76323;80;30571274597;"EL CACAHUETE SRL";498,82;"PES";1,00;0,00;0,00;72,58;0,00;0,00;0,00;0,00;80,60;0,00;;;;;;;;345,64;72,58;;;345,64;72,60
2022-04-02;1;2;464310;80;30704961983;"INTEGRITY SEGUROS ARGENTINA S.A.";5274,63;"PES";1,00;0,00;0,00;1107,67;0,00;0,00;0,00;0,00;0,00;0,00;;;;;;;;5274,63;1107,67;;;4890,06;900,90
2022-04-02;1;2;464230;80;30704961983;"INTEGRITY SEGUROS ARGENTINA S.A.";1967,20;"PES";1,00;0,00;0,00;413,11;0,00;0,00;0,00;0,00;0,00;0,00;;;;;;;;1967,20;413,11;;;2200,00;336,00
2022-04-02;1;2;464231;80;30704961983;"INTEGRITY SEGUROS ARGENTINA S.A.";1967,20;"PES";1,00;0,00;0,00;413,11;0,00;0,00;0,00;0,00;0,00;0,00;;;;;;;;1967,20;413,11;;;2200,00;336,00
2022-04-02;1;5;10;80;20301844663;"HERNANDEZ RODRIGO RAUL";124332,00;"PES";1,00;0,00;0,00;21578,28;0,00;0,00;0,00;0,00;0,00;0,00;;;;;;;;102753,72;21578,28;;;102753,72;21578,30
2022-04-04;1;1000;58290;80;30501718048;"JOSE Y PEDRO CELOTTI S.A.C.I.F. E I.";59097,59;"PES";1,00;0,00;0,00;10256,61;0,00;0,00;0,00;0,00;0,00;0,00;;;;;;;;48840,98;10256,61;;;48840,98;10256,60
2022-04-04;1;5;27666;80;30710503210;"LEO MAR S.R.L.";7166,08;"PES";1,00;0,00;0,00;1243,70;0,00;0,00;0,00;0,00;0,00;0,00;;;;;;;;5922,38;1243,70;;;5922,38;1243,70
2022-04-04;1;5;27667;80;30710503210;"LEO MAR S.R.L.";5255,16;"PES";1,00;0,00;0,00;912,05;0,00;0,00;0,00;0,00;0,00;0,00;;;;;;;;4343,11;912,05;;;4343,11;912,10
2022-04-04;1;4;13147;80;30710503210;"LEO MAR S.R.L.";2443,64;"PES";1,00;0,00;0,00;424,10;0,00;0,00;0,00;0,00;0,00;0,00;;;;;;;;2019,54;424,10;;;2019,54;424,10
2022-04-04;1;4;13148;80;30710503210;"LEO MAR S.R.L.";1502,17;"PES";1,00;0,00;0,00;260,71;0,00;0,00;0,00;0,00;0,00;0,00;;;;;;;;1241,46;260,71;;;1241,46;260,70
2022-04-04;1;5;447;80;20327239679;"CASTAÑO MAURICIO GASTON JESUS";3840,00;"PES";1,00;0,00;0,00;666,44;0,00;0,00;0,00;0,00;0,00;0,00;;;;;;;;3173,56;666,44;;;3173,56;666,40
2022-04-04;1;11;10809;80;30709300403;"FRANCISCO JOSE DURA SRL";21780,00;"PES";1,00;0,00;0,00;3780,00;0,00;0,00;0,00;0,00;0,00;0,00;;;;;;;;18000,00;3780,00;;;18000,00;3780,00
2022-04-04;1;5;5049;80;20293820563;"GONZALEZ EDUARDO JAVIER";10799,00;"PES";1,00;0,00;0,00;1026,15;0,00;0,00;0,00;0,00;0,00;0,00;;;;;;9772,85;1026,15;;;;;9772,85;1026,20
2022-04-04;1;5;11;80;20301844663;"HERNANDEZ RODRIGO RAUL";967000,00;"PES";1,00;0,00;0,00;167826,45;0,00;0,00;0,00;0,00;0,00;0,00;;;;;;;;799173,55;167826,45;;;799173,55;167826,50
2022-04-04;1;11;10802;80;30709300403;"FRANCISCO JOSE DURA SRL";334832,00;"PES";1,00;0,00;0,00;58111,34;0,00;0,00;0,00;0,00;0,00;0,00;;;;;;;;276720,66;58111,34;;;276720,66;58111,30
2022-04-04;1;1000;58278;80;30501718048;"JOSE Y PEDRO CELOTTI S.A.C.I.F. E I.";10745,94;"PES";1,00;0,00;0,00;1865,00;0,00;0,00;0,00;0,00;0,00;0,00;;;;;;;;8880,94;1865,00;;;8880,94;1865,00
2022-04-04;1;11;10808;80;30709300403;"FRANCISCO JOSE DURA SRL";6369,83;"PES";1,00;0,00;0,00;1105,51;0,00;0,00;0,00;0,00;0,00;0,00;;;;;;;;5264,32;1105,51;;;5264,32;1105,50
2022-04-04;1;3;951;80;20261127629;"IVALDI DANIEL ESTEBAN";46710,69;"PES";1,00;0,00;0,00;8106,81;0,00;0,00;0,00;0,00;0,00;0,00;;;;;;;;38603,86;8106,81;;;38603,88;8106,80
2022-04-04;3;11;566;80;30709300403;"FRANCISCO JOSE DURA SRL";-8167,50;"PES";1,00;0,00;0,00;-1417,50;0,00;0,00;0,00;0,00;0,00;0,00;;;;;;;;-6750,00;-1417,50;;;-6750,00;-1417,50
2022-04-04;11;15;39;80;20363566392;"LOPEZ MATIAS FERNANDO";34350,00;"PES";1,00;0,00;0,00;0,00;0,00;0,00;0,00;0,00;0,00;0,00;0,00;0,00;0,00;0,00;0,00;0,00;0,00;0,00;0,00;0,00;0,00;0,00;0,00
2022-04-04;11;2;696;80;20316233016;"CIARROCCA LEANDRO JESUS MARIA";15000,00;"PES";1,00;0,00;0,00;0,00;0,00;0,00;0,00;0,00;0,00;0,00;0,00;0,00;0,00;0,00;0,00;0,00;0,00;0,00;0,00;0,00;0,00;0,00;0,00
2022-04-05;1;3;1333;80;20277820502;"RUFFINI ABEL MARIO";13959,08;"PES";1,00;0,00;0,00;2422,65;0,00;0,00;0,00;0,00;0,00;0,00;;;;;;;;11536,43;2422,65;;;11536,43;2422,70
2022-04-05;1;6;11720;80;30710503210;"LEO MAR S.R.L.";1026,00;"PES";1,00;0,00;0,00;178,07;0,00;0,00;0,00;0,00;0,00;0,00;;;;;;;;847,93;178,07;;;847,93;178,10
2022-04-05;1;4;186;80;30572117789;"INDUJER MAQUINARIAS AGRICOLAS SRL";23564,75;"PES";1,00;0,00;0,00;4089,75;0,00;0,00;0,00;0,00;0,00;0,00;;;;;;;;19475,00;4089,75;;;19475,00;4089,80
2022-04-05;1;1000;58312;80;30501718048;"JOSE Y PEDRO CELOTTI S.A.C.I.F. E I.";1170,35;"PES";1,00;0,00;0,00;203,12;0,00;0,00;0,00;0,00;0,00;0,00;;;;;;;;967,23;203,12;;;967,23;203,10
2022-04-05;1;2;25358;80;33515745039;"NITUB S A I C";4713,07;"PES";1,00;0,00;0,00;817,97;0,00;0,00;0,00;0,00;0,00;0,00;;;;;;;;3895,10;817,97;;;3895,10;818,00
2022-04-05;1;1000;58311;80;30501718048;"JOSE Y PEDRO CELOTTI S.A.C.I.F. E I.";1753,41;"PES";1,00;0,00;0,00;304,31;0,00;0,00;0,00;0,00;0,00;0,00;;;;;;;;1449,10;304,31;;;1449,10;304,30
2022-04-05;1;4;188;80;30572117789;"INDUJER MAQUINARIAS AGRICOLAS SRL";22070,40;"PES";1,00;0,00;0,00;3830,40;0,00;0,00;0,00;0,00;0,00;0,00;;;;;;;;18240,00;3830,40;;;18240,00;3830,40
2022-04-05;3;1000;25338;80;30501718048;"JOSE Y PEDRO CELOTTI S.A.C.I.F. E I.";-99775,74;"PES";1,00;0,00;0,00;-17316,45;0,00;0,00;0,00;0,00;0,00;0,00;;;;;;;;-82459,29;-17316,45;;;-82459,29;-17316,50
2022-04-06;1;10;791;80;30703565936;"RIVESTIMENTO S R L";35570,73;"PES";1,00;0,00;0,00;6173,43;0,00;0,00;0,00;0,00;0,00;0,00;;;;;;;;29397,30;6173,43;;;29397,30;6173,40
2022-04-06;1;2;1160;80;27318918916;"PAGLIARECCI PAOLA LAURA";80000,00;"PES";1,00;0,00;0,00;13884,30;0,00;0,00;0,00;0,00;0,00;0,00;;;;;;;;66115,71;13884,30;;;66115,70;13884,30
2022-04-06;1;11;10879;80;30709300403;"FRANCISCO JOSE DURA SRL";57960,00;"PES";1,00;0,00;0,00;10059,17;0,00;0,00;0,00;0,00;0,00;0,00;;;;;;;;47900,83;10059,17;;;47900,83;10059,20
2022-04-06;1;101;55476;80;30714710997;"JUAN BLANGINO S.A.";24341,45;"PES";1,00;0,00;0,00;4224,55;0,00;0,00;0,00;0,00;0,00;0,00;;;;;;;;20116,90;4224,55;;;20116,90;4224,60
2022-04-06;1;4;85;80;23164283089;"ALESSANDRINI DANIEL OSCAR";7018,00;"PES";1,00;0,00;0,00;1218,00;0,00;0,00;0,00;0,00;0,00;0,00;;;;;;;;5800,00;1218,00;;;5800,00;1218,00
2022-04-07;1;2;25389;80;33515745039;"NITUB S A I C";990,36;"PES";1,00;0,00;0,00;171,88;0,00;0,00;0,00;0,00;0,00;0,00;;;;;;;;818,48;171,88;;;818,48;171,90
2022-04-07;1;2;25383;80;33515745039;"NITUB S A I C";2216,70;"PES";1,00;0,00;0,00;384,72;0,00;0,00;0,00;0,00;0,00;0,00;;;;;;;;1831,98;384,72;;;1831,98;384,70
2022-04-07;1;11;621414;80;30631810582;"WURTH ARGENTINA S.A.";4814,64;"PES";1,00;0,00;0,00;835,60;0,00;0,00;0,00;0,00;0,00;0,00;;;;;;;;3979,04;835,60;;;3979,04;835,60
2022-04-07;1;1;1544;80;30717027260;"EL LABORAL SRL";21884,85;"PES";1,00;0,00;0,00;3798,20;0,00;0,00;0,00;0,00;0,00;0,00;;;;;;;;18086,65;3798,20;;;18086,65;3798,20
2022-04-07;1;5;4559;80;20229170288;"BOSCO RENE GERMAN";2050,01;"PES";1,00;0,00;0,00;355,79;0,00;0,00;0,00;0,00;0,00;0,00;;;;;;;;1694,24;355,79;;;1694,22;355,80
2022-04-07;1;2;42430;80;33708679599;"AGRO MACCARI SRL.";32736,79;"PES";1,00;0,00;0,00;5681,59;0,00;0,00;0,00;0,00;0,00;0,00;;;;;;;;27055,20;5681,59;;;27055,20;5681,60
2022-04-07;1;2;25381;80;33515745039;"NITUB S A I C";2910,39;"PES";1,00;0,00;0,00;505,11;0,00;0,00;0,00;0,00;0,00;0,00;;;;;;;;2405,28;505,11;;;2405,28;505,10
2022-04-07;3;1000;25393;80;30501718048;"JOSE Y PEDRO CELOTTI S.A.C.I.F. E I.";-293536,85;"PES";1,00;0,00;0,00;-50944,39;0,00;0,00;0,00;0,00;0,00;0,00;;;;;;;;-242592,46;-50944,39;;;-242592,46;-50944,40
2022-04-07;3;11;570;80;30709300403;"FRANCISCO JOSE DURA SRL";-10890,00;"PES";1,00;0,00;0,00;-1890,00;0,00;0,00;0,00;0,00;0,00;0,00;;;;;;;;-9000,00;-1890,00;;;-9000,00;-1890,00
2022-04-07;11;1;13;80;20374087291;"MANSILLA GERMAN ALEXIS";12000,00;"PES";1,00;0,00;0,00;0,00;0,00;0,00;0,00;0,00;0,00;0,00;0,00;0,00;0,00;0,00;0,00;0,00;0,00;0,00;0,00;0,00;0,00;0,00;0,00
2022-04-07;11;2;321;80;20275119033;"REINALDI EZEQUIEL MAXIMILIANO";7000,00;"PES";1,00;0,00;0,00;0,00;0,00;0,00;0,00;0,00;0,00;0,00;0,00;0,00;0,00;0,00;0,00;0,00;0,00;0,00;0,00;0,00;0,00;0,00;0,00
2022-04-07;11;1;12;80;20374087291;"MANSILLA GERMAN ALEXIS";12000,00;"PES";1,00;0,00;0,00;0,00;0,00;0,00;0,00;0,00;0,00;0,00;0,00;0,00;0,00;0,00;0,00;0,00;0,00;0,00;0,00;0,00;0,00;0,00;0,00
2022-04-07;15;2;87;80;20285888396;"BILLORDO FEDERICO CESAR";57458,00;"PES";1,00;0,00;0,00;0,00;0,00;0,00;0,00;0,00;0,00;0,00;0,00;0,00;0,00;0,00;0,00;0,00;0,00;0,00;0,00;0,00;0,00;0,00;0,00
2022-04-08;1;6;31422;80;33639665459;"ACEROS CUFER S R L";30212,87;"DOL";111,97;0,00;0,00;5243,56;0,00;0,00;0,00;0,00;0,00;0,00;;;;;;;;24969,31;5243,56;;;24969,31;5240,20
2022-04-08;1;1281;1392781;80;30663288497;"AMX ARGENTINA SOCIEDAD ANONIMA";12356,13;"PES";1,00;0,00;0,00;2245,59;288,75;0,00;0,00;0,00;196,79;0,00;;;;;;;;5886,00;1236,06;3739,00;1009,53;9625,00;2245,60
2022-04-08;1;3;4517;80;20055316091;"COSTAGRANDE JUAN JOSE";4810,40;"PES";1,00;0,00;0,00;834,86;0,00;0,00;0,00;0,00;0,00;0,00;;;;;;;;3975,54;834,86;;;3975,54;834,90
2022-04-08;1;18;10400;80;20202576282;"EPPLE JAVIER OTTMAR JUAN";367,75;"PES";1,00;0,00;0,00;63,82;0,00;0,00;0,00;0,00;0,00;0,00;;;;;;;;303,93;63,82;;;303,93;63,80
2022-04-08;1;1000;58460;80;30501718048;"JOSE Y PEDRO CELOTTI S.A.C.I.F. E I.";49781,95;"PES";1,00;0,00;0,00;8639,84;0,00;0,00;0,00;0,00;0,00;0,00;;;;;;;;41142,11;8639,84;;;41142,11;8639,80
2022-04-08;1;3;160;80;30710806701;"MATERIALES F & F S.R.L";4000,02;"PES";1,00;0,00;0,00;694,22;0,00;0,00;0,00;0,00;0,00;0,00;;;;;;;;3305,80;694,22;;;3305,80;694,20
2022-04-08;1;3;158;80;30710806701;"MATERIALES F & F S.R.L";131099,98;"PES";1,00;0,00;0,00;22752,89;0,00;0,00;0,00;0,00;0,00;0,00;;;;;;;;108347,09;22752,89;;;108347,09;22752,90
2022-04-08;1;3;1615;80;27289131898;"FRATE NATALIA SALOME";23990,41;"PES";1,00;0,00;0,00;4163,63;0,00;0,00;0,00;0,00;0,00;0,00;;;;;;;;19826,81;4163,63;;;19826,78;4163,60
2022-04-08;11;2;75;80;20285761760;"BOASSO GERMAN ANTONIO";40000,00;"PES";1,00;0,00;0,00;0,00;0,00;0,00;0,00;0,00;0,00;0,00;0,00;0,00;0,00;0,00;0,00;0,00;0,00;0,00;0,00;0,00;0,00;0,00;0,00
2022-04-08;11;2;183;80;20316228993;"MARIN JONATAN CARLOS";34000,00;"PES";1,00;0,00;0,00;0,00;0,00;0,00;0,00;0,00;0,00;0,00;0,00;0,00;0,00;0,00;0,00;0,00;0,00;0,00;0,00;0,00;0,00;0,00;0,00
2022-04-08;15;3;160;80;27139581321;"SOSA VIRGINIA";95340,00;"PES";1,00;0,00;0,00;0,00;0,00;0,00;0,00;0,00;0,00;0,00;0,00;0,00;0,00;0,00;0,00;0,00;0,00;0,00;0,00;0,00;0,00;0,00;0,00
2022-04-10;11;2;185;80;20316228993;"MARIN JONATAN CARLOS";16000,00;"PES";1,00;0,00;0,00;0,00;0,00;0,00;0,00;0,00;0,00;0,00;0,00;0,00;0,00;0,00;0,00;0,00;0,00;0,00;0,00;0,00;0,00;0,00;0,00
2022-04-11;1;5;13;80;20301844663;"HERNANDEZ RODRIGO RAUL";100000,00;"PES";1,00;0,00;0,00;17355,37;0,00;0,00;0,00;0,00;0,00;0,00;;;;;;;;82644,63;17355,37;;;82644,63;17355,40
2022-04-11;1;8636;4777;80;30678774495;"OPERADORA DE ESTACIONES DE SERVICIOS SA";3000,00;"PES";1,00;0,00;0,00;428,72;0,00;0,00;0,00;0,00;529,73;0,00;;;;;;;;2041,55;428,72;;;2041,55;428,70
2022-04-11;11;3;808;80;27173956679;"ETBUL FABIANA ALEJANDRA";1000,00;"PES";1,00;0,00;0,00;0,00;0,00;0,00;0,00;0,00;0,00;0,00;0,00;0,00;0,00;0,00;0,00;0,00;0,00;0,00;0,00;0,00;0,00;0,00;0,00
2022-04-12;1;6;2366;80;20178822080;"FABRICHINI EDUARDO JOSE";1120,00;"PES";1,00;0,00;0,00;194,38;0,00;0,00;0,00;0,00;0,00;0,00;;;;;;;;925,62;194,38;;;925,62;194,40
2022-04-12;1;5;27823;80;30710503210;"LEO MAR S.R.L.";38904,74;"PES";1,00;0,00;0,00;6752,06;0,00;0,00;0,00;0,00;0,00;0,00;;;;;;;;32152,68;6752,06;;;32152,68;6752,10
2022-04-12;1;1000;58599;80;30501718048;"JOSE Y PEDRO CELOTTI S.A.C.I.F. E I.";61301,94;"PES";1,00;0,00;0,00;10639,18;0,00;0,00;0,00;0,00;0,00;0,00;;;;;;;;50662,76;10639,18;;;50662,76;10639,20
2022-04-12;1;4;373;80;27319112044;"NOWOSAD PAMELA SOLANGE";29540,01;"PES";1,00;0,00;0,00;5126,77;0,00;0,00;0,00;0,00;0,00;0,00;;;;;;;;24413,23;5126,77;;;24413,24;5126,80
2022-04-12;3;11;108417;80;30631810582;"WURTH ARGENTINA S.A.";-4745,77;"PES";1,00;0,00;0,00;-823,65;0,00;0,00;0,00;0,00;0,00;0,00;;;;;;;;-3922,12;-823,65;;;-3922,12;-823,70
2022-04-12;3;4;29984;80;30709187941;"AFIANZADORA LATINOAMERICANA COMPAÑIA DE SEGUROS SA";-2938,54;"PES";1,00;-97,00;0,00;-617,09;0,00;0,00;0,00;0,00;0,00;0,00;;;;;;;;-2938,54;-617,09;;;-2346,44;-492,80
2022-04-12;3;4;29983;80;30709187941;"AFIANZADORA LATINOAMERICANA COMPAÑIA DE SEGUROS SA";-1716,80;"PES";1,00;-15,05;0,00;-360,53;0,00;0,00;0,00;0,00;0,00;0,00;;;;;;;;-1716,80;-360,53;;;-1368,52;-287,40
2022-04-12;11;2;171;80;20225871141;"RADINS JUAN CARLOS";12250,00;"PES";1,00;0,00;0,00;0,00;0,00;0,00;0,00;0,00;0,00;0,00;0,00;0,00;0,00;0,00;0,00;0,00;0,00;0,00;0,00;0,00;0,00;0,00;0,00
2022-04-13;1;7;8835;80;20110280700;"SUCESION DE TEMPERINI OLIVIO ANTONIO";26729,81;"PES";1,00;0,00;0,00;4639,06;0,00;0,00;0,00;0,00;0,00;0,00;;;;;;;;22090,75;4639,06;;;22090,75;4639,10
2022-04-13;1;2;25444;80;33515745039;"NITUB S A I C";38867,50;"PES";1,00;0,00;0,00;6745,60;0,00;0,00;0,00;0,00;0,00;0,00;;;;;;;;32121,90;6745,60;;;32121,90;6745,60
2022-04-13;1;5;14;80;20301844663;"HERNANDEZ RODRIGO RAUL";50000,00;"PES";1,00;0,00;0,00;8677,69;0,00;0,00;0,00;0,00;0,00;0,00;;;;;;;;41322,31;8677,69;;;41322,31;8677,70
2022-04-13;1;4;375;80;27319112044;"NOWOSAD PAMELA SOLANGE";1900,00;"PES";1,00;0,00;0,00;329,75;0,00;0,00;0,00;0,00;0,00;0,00;;;;;;;;1570,25;329,75;;;1570,25;329,80
2022-04-13;1;1000;58627;80;30501718048;"JOSE Y PEDRO CELOTTI S.A.C.I.F. E I.";487,57;"PES";1,00;0,00;0,00;84,62;0,00;0,00;0,00;0,00;0,00;0,00;;;;;;;;402,95;84,62;;;402,95;84,60
2022-04-13;1;4;374;80;27319112044;"NOWOSAD PAMELA SOLANGE";48800,00;"PES";1,00;0,00;0,00;8469,42;0,00;0,00;0,00;0,00;0,00;0,00;;;;;;;;40330,58;8469,42;;;40330,58;8469,40
2022-04-13;1;7;8839;80;20110280700;"SUCESION DE TEMPERINI OLIVIO ANTONIO";21939,33;"PES";1,00;0,00;0,00;3807,65;0,00;0,00;0,00;0,00;0,00;0,00;;;;;;;;18131,68;3807,65;;;18131,68;3807,70
2022-04-13;1;6;6192;80;20101907113;"GRECCA DANIEL ALFONSO";127926,42;"PES";1,00;0,00;0,00;22110,74;0,00;526,45;0,00;0,00;0,00;0,00;;;;;;;;105289,23;22110,74;;;105289,23;22110,70
2022-04-13;3;2;65316;80;30704961983;"INTEGRITY SEGUROS ARGENTINA S.A.";-1967,20;"PES";1,00;0,00;0,00;-413,11;0,00;0,00;0,00;0,00;0,00;0,00;;;;;;;;-1967,20;-413,11;;;-2200,00;-336,00
2022-04-13;3;2;6886;80;33515745039;"NITUB S A I C";-942,61;"PES";1,00;0,00;0,00;-163,59;0,00;0,00;0,00;0,00;0,00;0,00;;;;;;;;-779,02;-163,59;;;-779,02;-163,60
2022-04-13;3;2;65324;80;30704961983;"INTEGRITY SEGUROS ARGENTINA S.A.";-1967,20;"PES";1,00;0,00;0,00;-413,11;0,00;0,00;0,00;0,00;0,00;0,00;;;;;;;;-1967,20;-413,11;;;-2200,00;-336,00
2022-04-13;3;2;65325;80;30704961983;"INTEGRITY SEGUROS ARGENTINA S.A.";-1967,20;"PES";1,00;0,00;0,00;-413,11;0,00;0,00;0,00;0,00;0,00;0,00;;;;;;;;-1967,20;-413,11;;;-2200,00;-336,00
2022-04-13;3;2;65321;80;30704961983;"INTEGRITY SEGUROS ARGENTINA S.A.";-1967,20;"PES";1,00;0,00;0,00;-413,11;0,00;0,00;0,00;0,00;0,00;0,00;;;;;;;;-1967,20;-413,11;;;-2200,00;-336,00
2022-04-13;11;2;586;80;20351428474;"PIETRANI RODRIGO ANDRES";1000,00;"PES";1,00;0,00;0,00;0,00;0,00;0,00;0,00;0,00;0,00;0,00;0,00;0,00;0,00;0,00;0,00;0,00;0,00;0,00;0,00;0,00;0,00;0,00;0,00
2022-04-13;11;3;178;80;20318914770;"BLATTER EZEQUIEL SEBASTIAN";50000,00;"PES";1,00;0,00;0,00;0,00;0,00;0,00;0,00;0,00;0,00;0,00;0,00;0,00;0,00;0,00;0,00;0,00;0,00;0,00;0,00;0,00;0,00;0,00;0,00
2022-04-14;1;1000;58666;80;30501718048;"JOSE Y PEDRO CELOTTI S.A.C.I.F. E I.";4410,11;"PES";1,00;0,00;0,00;765,39;0,00;0,00;0,00;0,00;0,00;0,00;;;;;;;;3644,72;765,39;;;3644,72;765,40
2022-04-14;1;2;284;80;20323960918;"VERZINI MOSTAFA HERNAN DANIEL";20000,01;"PES";1,00;0,00;0,00;3471,08;0,00;0,00;0,00;0,00;0,00;0,00;;;;;;;;16528,95;3471,08;;;16528,93;3471,10
2022-04-14;1;3;954;80;20261127629;"IVALDI DANIEL ESTEBAN";196500,37;"PES";1,00;0,00;0,00;34103,37;0,00;0,00;0,00;0,00;0,00;0,00;;;;;;;;162397,00;34103,37;;;162397,00;34103,40
2022-04-14;1;2;3103;80;20219421568;"DABARNO MARIANO NORBERTO";4400,00;"PES";1,00;0,00;0,00;763,64;0,00;0,00;0,00;0,00;0,00;0,00;;;;;;;;3636,38;763,64;;;3636,36;763,60
2022-04-18;1;11;11130;80;30709300403;"FRANCISCO JOSE DURA SRL";4119,33;"PES";1,00;0,00;0,00;714,93;0,00;0,00;0,00;0,00;0,00;0,00;;;;;;;;3404,41;714,93;;;3404,40;714,90
2022-04-18;1;11;11142;80;30709300403;"FRANCISCO JOSE DURA SRL";57892,50;"PES";1,00;0,00;0,00;10047,46;0,00;0,00;0,00;0,00;0,00;0,00;;;;;;;;47845,04;10047,46;;;47845,04;10047,50
2022-04-18;1;1000;58732;80;30501718048;"JOSE Y PEDRO CELOTTI S.A.C.I.F. E I.";2992,55;"PES";1,00;0,00;0,00;519,37;0,00;0,00;0,00;0,00;0,00;0,00;;;;;;;;2473,18;519,37;;;2473,18;519,40
2022-04-18;1;18;10565;80;20202576282;"EPPLE JAVIER OTTMAR JUAN";82930,73;"PES";1,00;0,00;0,00;14101,58;0,00;1678,76;0,00;0,00;0,00;0,00;;;;;;;;67150,39;14101,58;;;67150,39;14101,60
2022-04-18;1;3;1621;80;27289131898;"FRATE NATALIA SALOME";75189,77;"PES";1,00;0,00;0,00;13049,47;0,00;0,00;0,00;0,00;0,00;0,00;;;;;;;;62140,33;13049,47;;;62140,30;13049,50
2022-04-18;3;18;2215;80;20202576282;"EPPLE JAVIER OTTMAR JUAN";-271743,27;"PES";1,00;0,00;0,00;-46207,36;0,00;-5500,87;0,00;0,00;0,00;0,00;;;;;;;;-220035,04;-46207,36;;;-220035,04;-46207,40
2022-04-19;1;6;6215;80;20101907113;"GRECCA DANIEL ALFONSO";103376,14;"PES";1,00;0,00;0,00;17867,48;0,00;425,42;0,00;0,00;0,00;0,00;;;;;;;;85083,24;17867,48;;;85083,24;17867,50
2022-04-19;1;2001;4776;80;27228164092;"PONZIO DANIELA DEL PILAR";1102,50;"PES";1,00;0,00;0,00;191,34;0,00;0,00;0,00;0,00;0,00;0,00;;;;;;;;911,16;191,34;;;911,16;191,30
2022-04-19;1;1;4;80;20277521165;"CASTILLO JORGE VALENTIN";200000,90;"PES";1,00;0,00;0,00;34710,90;0,00;0,00;0,00;0,00;0,00;0,00;;;;;;;;165290,00;34710,90;;;165290,00;34710,90
2022-04-19;1;2;25505;80;33515745039;"NITUB S A I C";800,00;"PES";1,00;0,00;0,00;138,84;0,00;0,00;0,00;0,00;0,00;0,00;;;;;;;;661,16;138,84;;;661,16;138,80
2022-04-19;1;6;6216;80;20101907113;"GRECCA DANIEL ALFONSO";56683,25;"PES";1,00;0,00;0,00;9797,10;0,00;233,26;0,00;0,00;0,00;0,00;;;;;;;;46652,89;9797,10;;;46652,89;9797,10
2022-04-20;1;2;25547;80;33515745039;"NITUB S A I C";15492,49;"PES";1,00;0,00;0,00;2688,78;0,00;0,00;0,00;0,00;0,00;0,00;;;;;;;;12803,71;2688,78;;;12803,71;2688,80
2022-04-20;1;1000;58840;80;30501718048;"JOSE Y PEDRO CELOTTI S.A.C.I.F. E I.";21457,51;"PES";1,00;0,00;0,00;3724,03;0,00;0,00;0,00;0,00;0,00;0,00;;;;;;;;17733,48;3724,03;;;17733,48;3724,00
2022-04-20;1;3;3018;80;20178822692;"SERRA RAUL JOSE";1264,01;"PES";1,00;0,00;0,00;219,37;0,00;0,00;0,00;0,00;0,00;0,00;;;;;;;;1044,62;219,37;;;1044,64;219,40
2022-04-20;1;1;5035;80;30714867152;"ALEJANDRA M. BUSSO, LUCIANO A. DALLA BENETTA Y ROBERTINO H. DALLA BENETTA SOCIEDAD SIMPLE";2226,40;"PES";1,00;0,00;0,00;386,40;0,00;0,00;0,00;0,00;0,00;0,00;;;;;;;;1840,00;386,40;;;1840,00;386,40
2022-04-20;1;2;25546;80;33515745039;"NITUB S A I C";6842,42;"PES";1,00;0,00;0,00;1187,53;0,00;0,00;0,00;0,00;0,00;0,00;;;;;;;;5654,89;1187,53;;;5654,89;1187,50
2022-04-20;1;1000;58816;80;30501718048;"JOSE Y PEDRO CELOTTI S.A.C.I.F. E I.";4923,90;"PES";1,00;0,00;0,00;854,56;0,00;0,00;0,00;0,00;0,00;0,00;;;;;;;;4069,34;854,56;;;4069,34;854,60
2022-04-20;1;2;3990;80;20250824689;"COMISSO LEANDRO ANIBAL";267193,00;"PES";1,00;0,00;0,00;46372,34;0,00;0,00;0,00;0,00;0,00;0,00;;;;;;;;220820,67;46372,34;;;220820,66;46372,30
2022-04-20;11;3;147;80;20203330953;"TROPEA ADRIAN JOSE ESTEBAN";125000,00;"PES";1,00;0,00;0,00;0,00;0,00;0,00;0,00;0,00;0,00;0,00;0,00;0,00;0,00;0,00;0,00;0,00;0,00;0,00;0,00;0,00;0,00;0,00;0,00
2022-04-20;11;3;18;80;20328337747;"BOURNISSENT CRISTHIAN JOSE";61360,00;"PES";1,00;0,00;0,00;0,00;0,00;0,00;0,00;0,00;0,00;0,00;0,00;0,00;0,00;0,00;0,00;0,00;0,00;0,00;0,00;0,00;0,00;0,00;0,00
2022-04-21;1;5;3134;80;30566275232;"BOLSA DE COMERCIO DE SANTA FE";113407,98;"PES";1,00;0,00;113407,98;0,00;0,00;0,00;0,00;0,00;0,00;0,00;;;;;;;;;;;;0,00;0,00
2022-04-21;1;2;465750;80;30704961983;"INTEGRITY SEGUROS ARGENTINA S.A.";2459,00;"PES";1,00;0,00;0,00;516,39;0,00;0,00;0,00;0,00;0,00;0,00;;;;;;;;2459,00;516,39;;;2800,00;420,00
2022-04-21;1;1000;58899;80;30501718048;"JOSE Y PEDRO CELOTTI S.A.C.I.F. E I.";97174,82;"PES";1,00;0,00;0,00;16865,05;0,00;0,00;0,00;0,00;0,00;0,00;;;;;;;;80309,77;16865,05;;;80309,77;16865,10
2022-04-21;1;2;582;80;20216909284;"GEMINALE CRISTIAN LEONARDO";14520,00;"PES";1,00;0,00;0,00;2520,00;0,00;0,00;0,00;0,00;0,00;0,00;;;;;;;;12000,00;2520,00;;;12000,00;2520,00
2022-04-21;3;3;148122;80;30518919349;"ASEGURADORES DE CAUCIONES S A COMPAÑIA DE SEGUROS";-2232,86;"PES";1,00;-19,98;0,00;-468,90;0,00;0,00;0,00;0,00;0,00;0,00;;;;;;;;-2232,86;-468,90;;;-1816,07;-381,40
2022-04-21;3;3;148144;80;30518919349;"ASEGURADORES DE CAUCIONES S A COMPAÑIA DE SEGUROS";-4931,71;"PES";1,00;-44,13;0,00;-1035,66;0,00;0,00;0,00;0,00;0,00;0,00;;;;;;;;-4931,71;-1035,66;;;-4011,15;-842,30
2022-04-21;3;3;148143;80;30518919349;"ASEGURADORES DE CAUCIONES S A COMPAÑIA DE SEGUROS";-2249,93;"PES";1,00;-20,13;0,00;-472,49;0,00;0,00;0,00;0,00;0,00;0,00;;;;;;;;-2249,93;-472,49;;;-1829,96;-384,30
2022-04-22;1;3;7109;80;30576926479;"DISTRIBUIDORA BROWN SRL";32967,72;"PES";1,00;0,00;0,00;5721,67;0,00;0,00;0,00;0,00;0,00;0,00;;;;;;;;27246,05;5721,67;;;27246,05;5721,70
2022-04-22;1;2;25565;80;33515745039;"NITUB S A I C";618,98;"PES";1,00;0,00;0,00;107,43;0,00;0,00;0,00;0,00;0,00;0,00;;;;;;;;511,55;107,43;;;511,55;107,40
2022-04-22;1;5;17;80;20301844663;"HERNANDEZ RODRIGO RAUL";214281,56;"PES";1,00;0,00;0,00;37189,36;0,00;0,00;0,00;0,00;0,00;0,00;;;;;;;;177092,20;37189,36;;;177092,20;37189,40
2022-04-22;1;1000;58942;80;30501718048;"JOSE Y PEDRO CELOTTI S.A.C.I.F. E I.";10745,94;"PES";1,00;0,00;0,00;1865,00;0,00;0,00;0,00;0,00;0,00;0,00;;;;;;;;8880,94;1865,00;;;8880,94;1865,00
2022-04-23;2;3;3893;80;30674874975;"LAS ROSAS CABLEVISION SRL";100,00;"PES";1,00;0,00;0,00;17,36;0,00;0,00;0,00;0,00;0,00;0,00;;;;;;;;82,64;17,36;;;82,64;17,40
2022-04-25;1;2;21748;80;30709948098;"VMC S.R.L.";406022,70;"PES";1,00;0,00;0,00;70466,75;0,00;0,00;0,00;0,00;0,00;0,00;;;;;;;;335555,95;70466,75;;;335555,95;70466,80
2022-04-25;1;3;10449;80;30715578057;"J.M PERASSI E HIJOS SRL";37298,65;"PES";1,00;0,00;0,00;6473,32;0,00;0,00;0,00;0,00;0,00;0,00;;;;;;;;30825,33;6473,32;;;30825,33;6473,30
2022-04-25;1;1;2;80;30717477398;"AGRO ACEROS S. R. L. EN FORMACION";72508,20;"PES";1,00;0,00;0,00;12584,07;0,00;0,00;0,00;0,00;0,00;0,00;;;;;;;;59924,14;12584,07;;;59924,13;12584,10
2022-04-25;1;2001;4848;80;27228164092;"PONZIO DANIELA DEL PILAR";1473,59;"PES";1,00;0,00;0,00;255,75;0,00;0,00;0,00;0,00;0,00;0,00;;;;;;;;1217,84;255,75;;;1217,84;255,80
2022-04-25;1;2;206;80;30716006464;"DON DANISA Y ARREDONDO FABIO SCP";21780,00;"PES";1,00;0,00;0,00;3780,00;0,00;0,00;0,00;0,00;0,00;0,00;;;;;;;;18000,00;3780,00;;;18000,00;3780,00
2022-04-25;1;3;236274;80;30687874354;"CREDITO Y CAUCION S.A. COMPAÑIA DE SEGUROS";7086,67;"PES";1,00;112,39;0,00;1210,41;0,00;0,00;0,00;0,00;0,00;0,00;;;;;;;;5763,87;1210,41;;;5763,87;1210,40
2022-04-25;11;3;129;80;20251459550;"SANTINELLI JUAN PABLO";26000,00;"PES";1,00;0,00;0,00;0,00;0,00;0,00;0,00;0,00;0,00;0,00;0,00;0,00;0,00;0,00;0,00;0,00;0,00;0,00;0,00;0,00;0,00;0,00;0,00
2022-04-26;1;1;557;80;30717222632;"PIXEL SRL";76770,00;"PES";1,00;0,00;0,00;13323,72;0,00;0,00;0,00;0,00;0,00;0,00;;;;;;;;63446,28;13323,72;;;63446,28;13323,70
2022-04-26;1;3;236338;80;30687874354;"CREDITO Y CAUCION S.A. COMPAÑIA DE SEGUROS";8601,35;"PES";1,00;136,42;0,00;1469,12;0,00;0,00;0,00;0,00;0,00;0,00;;;;;;;;6995,81;1469,12;;;6995,81;1469,10
2022-04-26;1;1000;59050;80;30501718048;"JOSE Y PEDRO CELOTTI S.A.C.I.F. E I.";4037,00;"PES";1,00;0,00;0,00;700,64;0,00;0,00;0,00;0,00;0,00;0,00;;;;;;;;3336,36;700,64;;;3336,36;700,60
2022-04-26;1;3;1655;80;30714115126;"WINROS S.R.,L.";138873,15;"PES";1,00;0,00;0,00;24101,95;0,00;0,00;0,00;0,00;0,00;0,00;;;;;;;;114771,20;24101,95;;;114771,20;24102,00
2022-04-26;3;3;45872;80;30687874354;"CREDITO Y CAUCION S.A. COMPAÑIA DE SEGUROS";-5253,67;"PES";1,00;-94,39;0,00;-895,41;0,00;0,00;0,00;0,00;0,00;0,00;;;;;;;;-4263,87;-895,41;;;-4263,87;-895,40
2022-04-27;1;18;10702;80;20202576282;"EPPLE JAVIER OTTMAR JUAN";7786,76;"PES";1,00;0,00;0,00;1351,42;0,00;0,00;0,00;0,00;0,00;0,00;;;;;;;;6435,34;1351,42;;;6435,34;1351,40
2022-04-27;1;5;406;80;30589773051;"COOPERATIVA DE PROVISION DE AGUA POTABLE Y OTROS SERVICIOS PUB EL TREBOL LTDA";139622,00;"PES";1,00;98128,00;0,00;7201,44;0,00;0,00;0,00;0,00;0,00;0,00;;;;;;;;34292,56;7201,44;;;34292,56;7201,40
2022-04-27;1;4;13332;80;30710503210;"LEO MAR S.R.L.";10140,82;"PES";1,00;0,00;0,00;1759,98;0,00;0,00;0,00;0,00;0,00;0,00;;;;;;;;8380,84;1759,98;;;8380,84;1760,00
2022-04-27;1;1;1631;80;30715144154;"FIMDA S.A.";720873,27;"PES";1,00;0,00;0,00;68499,27;0,00;0,00;0,00;0,00;0,00;0,00;;;;;;652374,00;68499,27;;;;;652374,00;68499,30
2022-04-27;1;1000;59103;80;30501718048;"JOSE Y PEDRO CELOTTI S.A.C.I.F. E I.";2919,40;"PES";1,00;0,00;0,00;506,67;0,00;0,00;0,00;0,00;0,00;0,00;;;;;;;;2412,73;506,67;;;2412,73;506,70
2022-04-27;1;5;855;80;33712518559;"VENFOR S.R.L";505054,00;"PES";1,00;0,00;0,00;87654,00;0,00;0,00;0,00;0,00;0,00;0,00;;;;;;;;417400,00;87654,00;;;417400,00;87654,00
2022-04-27;1;5;28084;80;30710503210;"LEO MAR S.R.L.";2324,47;"PES";1,00;0,00;0,00;403,42;0,00;0,00;0,00;0,00;0,00;0,00;;;;;;;;1921,05;403,42;;;1921,05;403,40
2022-04-27;1;6;11855;80;30710503210;"LEO MAR S.R.L.";16995,10;"PES";1,00;0,00;0,00;2949,56;0,00;0,00;0,00;0,00;0,00;0,00;;;;;;;;14045,54;2949,56;;;14045,54;2949,60
2022-04-27;1;1000;59121;80;30501718048;"JOSE Y PEDRO CELOTTI S.A.C.I.F. E I.";4960,81;"PES";1,00;0,00;0,00;860,97;0,00;0,00;0,00;0,00;0,00;0,00;;;;;;;;4099,84;860,97;;;4099,84;861,00
2022-04-27;1;5;28085;80;30710503210;"LEO MAR S.R.L.";2294,46;"PES";1,00;0,00;0,00;398,21;0,00;0,00;0,00;0,00;0,00;0,00;;;;;;;;1896,25;398,21;;;1896,25;398,20
2022-04-27;1;1;559;80;30717222632;"PIXEL SRL";8933,00;"PES";1,00;0,00;0,00;1550,36;0,00;0,00;0,00;0,00;0,00;0,00;;;;;;;;7382,64;1550,36;;;7382,64;1550,40
2022-04-27;1;3;1129;80;30614206949;"MOSAICOS VENECIANO S R L";304304,01;"PES";1,00;0,00;0,00;52813,09;0,00;0,00;0,00;0,00;0,00;0,00;;;;;;;;251490,92;52813,09;;;251490,92;52813,10
2022-04-27;11;1;34;80;20363701672;"ESPINOZA MAXIMILIANO GABRIEL";50000,00;"PES";1,00;0,00;0,00;0,00;0,00;0,00;0,00;0,00;0,00;0,00;0,00;0,00;0,00;0,00;0,00;0,00;0,00;0,00;0,00;0,00;0,00;0,00;0,00
2022-04-28;1;1000;59146;80;30501718048;"JOSE Y PEDRO CELOTTI S.A.C.I.F. E I.";70839,93;"PES";1,00;0,00;0,00;12294,53;0,00;0,00;0,00;0,00;0,00;0,00;;;;;;;;58545,40;12294,53;;;58545,40;12294,50
2022-04-28;1;6;11866;80;30710503210;"LEO MAR S.R.L.";1115,00;"PES";1,00;0,00;0,00;193,51;0,00;0,00;0,00;0,00;0,00;0,00;;;;;;;;921,49;193,51;;;921,49;193,50
2022-04-28;1;1000;59186;80;30501718048;"JOSE Y PEDRO CELOTTI S.A.C.I.F. E I.";3698,84;"PES";1,00;0,00;0,00;641,95;0,00;0,00;0,00;0,00;0,00;0,00;;;;;;;;3056,89;641,95;;;3056,89;642,00
2022-04-28;1;2001;4886;80;27228164092;"PONZIO DANIELA DEL PILAR";1584,58;"PES";1,00;0,00;0,00;275,01;0,00;0,00;0,00;0,00;0,00;0,00;;;;;;;;1309,57;275,01;;;1309,57;275,00
2022-04-28;1;5;28114;80;30710503210;"LEO MAR S.R.L.";2548,73;"PES";1,00;0,00;0,00;442,34;0,00;0,00;0,00;0,00;0,00;0,00;;;;;;;;2106,39;442,34;;;2106,39;442,30
2022-04-28;1;6;31885;80;33639665459;"ACEROS CUFER S R L";21576,90;"DOL";115,04;0,00;0,00;3744,55;0,00;0,00;0,00;0,00;0,00;0,00;;;;;;;;17832,35;3744,55;;;17832,35;3750,30
2022-04-28;1;1;563;80;30717222632;"PIXEL SRL";17060,00;"PES";1,00;0,00;0,00;2960,83;0,00;0,00;0,00;0,00;0,00;0,00;;;;;;;;14099,17;2960,83;;;14099,17;2960,80
2022-04-28;1;1;1636;80;30715144154;"FIMDA S.A.";721887,66;"PES";1,00;0,00;0,00;68595,66;0,00;0,00;0,00;0,00;0,00;0,00;;;;;;653292,00;68595,66;;;;;653292,00;68595,70
2022-04-28;11;1;1;80;20418192691;"ZUBIRIA MALCON ANGEL GABRIEL";500000,00;"PES";1,00;0,00;0,00;0,00;0,00;0,00;0,00;0,00;0,00;0,00;0,00;0,00;0,00;0,00;0,00;0,00;0,00;0,00;0,00;0,00;0,00;0,00;0,00
2022-04-29;1;2001;4896;80;27228164092;"PONZIO DANIELA DEL PILAR";142215,15;"PES";1,00;0,00;0,00;13513,66;0,00;0,00;0,00;0,00;0,00;0,00;;;;;;128701,49;13513,66;;;;;128701,49;13513,70
2022-04-29;1;11;11390;80;30709300403;"FRANCISCO JOSE DURA SRL";60618,99;"PES";1,00;0,00;0,00;10394,92;0,00;0,00;0,00;0,00;0,00;0,00;;;;;;1449,00;152,15;48775,07;10242,77;;;50224,07;10394,90
2022-04-29;1;3;1376;80;20277820502;"RUFFINI ABEL MARIO";27845,52;"PES";1,00;0,00;0,00;4832,69;0,00;0,00;0,00;0,00;0,00;0,00;;;;;;;;23012,83;4832,69;;;23012,83;4832,70
2022-04-29;1;11;110;80;30698301836;"MI AJUAR SRL";36889,27;"PES";1,00;0,00;0,00;6402,27;0,00;0,00;0,00;0,00;0,00;0,00;;;;;;;;30487,00;6402,27;;;30487,00;6402,30
2022-04-29;1;127;5854;80;30590762233;"ALBERTO J. OLIVERO E HIJOS SA";64210,00;"PES";1,00;0,00;0,00;11143,88;0,00;0,00;0,00;0,00;0,00;0,00;;;;;;;;53066,12;11143,88;;;53066,12;11143,90
2022-04-29;1;1;5;80;20277521165;"CASTILLO JORGE VALENTIN";249998,10;"PES";1,00;0,00;0,00;43388,10;0,00;0,00;0,00;0,00;0,00;0,00;;;;;;;;206610,00;43388,10;;;206610,00;43388,10
2022-04-29;1;1000;59217;80;30501718048;"JOSE Y PEDRO CELOTTI S.A.C.I.F. E I.";2211,01;"PES";1,00;0,00;0,00;383,73;0,00;0,00;0,00;0,00;0,00;0,00;;;;;;;;1827,28;383,73;;;1827,28;383,70
2022-04-29;11;2;420;80;27127377850;"ALLARA ELIDA TERESITA";15000,00;"PES";1,00;0,00;0,00;0,00;0,00;0,00;0,00;0,00;0,00;0,00;0,00;0,00;0,00;0,00;0,00;0,00;0,00;0,00;0,00;0,00;0,00;0,00;0,00
2022-04-30;1;3;1629;80;27289131898;"FRATE NATALIA SALOME";56602,88;"PES";1,00;0,00;0,00;9823,64;0,00;0,00;0,00;0,00;0,00;0,00;;;;;;;;46779,24;9823,64;;;46779,24;9823,60
2022-04-30;1;3;3042;80;20178822692;"SERRA RAUL JOSE";16815,85;"PES";1,00;0,00;0,00;2918,45;0,00;0,00;0,00;0,00;0,00;0,00;;;;;;;;13897,38;2918,45;;;13897,40;2918,50
2022-04-30;1;3;1630;80;27289131898;"FRATE NATALIA SALOME";7061,13;"PES";1,00;0,00;0,00;1225,49;0,00;0,00;0,00;0,00;0,00;0,00;;;;;;;;5835,67;1225,49;;;5835,64;1225,50
2022-04-30;1;3;3044;80;20178822692;"SERRA RAUL JOSE";2520,02;"PES";1,00;0,00;0,00;437,36;0,00;0,00;0,00;0,00;0,00;0,00;;;;;;;;2082,67;437,36;;;2082,66;437,40
2022-04-30;1;3;3048;80;20178822692;"SERRA RAUL JOSE";13349,93;"PES";1,00;0,00;0,00;2316,93;0,00;0,00;0,00;0,00;0,00;0,00;;;;;;;;11033,00;2316,93;;;11033,00;2316,90
2022-04-30;1;3;10581;80;30715578057;"J.M PERASSI E HIJOS SRL";20578,98;"PES";1,00;0,00;0,00;3571,56;0,00;0,00;0,00;0,00;0,00;0,00;;;;;;;;17007,42;3571,56;;;17007,42;3571,60
2022-04-30;1;3;10580;80;30715578057;"J.M PERASSI E HIJOS SRL";45122,48;"PES";1,00;0,00;0,00;7831,17;0,00;0,00;0,00;0,00;0,00;0,00;;;;;;;;37291,30;7831,17;;;37291,30;7831,20
