"Fecha de Emisión";"Tipo de Comprobante";"Punto de Venta";"Número Desde";"Número Hasta";"Cód. Autorización";"Tipo Doc. Emisor";"Nro. Doc. Emisor";"Denominación Emisor";"Tipo Cambio";"Moneda";"Imp. Neto Gravado";"Imp. Neto No Gravado";"Imp. Op. Exentas";"Otros Tributos";"IVA";"Imp. Total"
2023-09-01;1;1;112;112;73359737633665;80;23361114019;PAIZAL JULIAN;1,00;PES;300000,00;0,00;0,00;0,00;63000,00;363000,00
2023-09-01;1;1;657;657;73355820825948;80;30717372685;CONSULTORA EN EL TRANSPORTE Y LA SEGURIDAD VIAL S.R.L;1,00;PES;867256,00;0,00;0,00;0,00;182123,76;1049379,76
2023-09-02;1;3;150;150;73350855649384;80;20278303870;VISINTIN MARIANO ENRIQUE;1,00;PES;300000,00;0,00;0,00;0,00;63000,00;363000,00
2023-09-07;1;7;747;747;73367455089934;80;20083224577;BUKSCHTEIN MAURICIO OSCAR;1,00;PES;19008,26;0,00;0,00;0,00;3991,74;23000,00
2023-09-27;1;1;676;676;73395582944735;80;30717372685;CONSULTORA EN EL TRANSPORTE Y LA SEGURIDAD VIAL S.R.L;1,00;PES;1046316,00;0,00;0,00;0,00;219726,36;1266042,36
